EESchema Schematic File Version 4
EELAYER 30 0
EELAYER END
$Descr A4 11693 8268
encoding utf-8
Sheet 1 1
Title "Wireless Rotor Temperature Sensor"
Date "2021-11-13"
Rev "A"
Comp ""
Comment1 "493 Senior Design"
Comment2 "Richard Sent"
Comment3 "Cleveland State University"
Comment4 "Safran"
$EndDescr
$Comp
L Regulator_Linear:AMS1117-3.3 U1
U 1 1 61900DE8
P 2800 1600
F 0 "U1" H 2800 1842 50  0000 C CNN
F 1 "AMS1117-3.3" H 2800 1751 50  0000 C CNN
F 2 "Package_TO_SOT_SMD:SOT-223-3_TabPin2" H 2800 1800 50  0001 C CNN
F 3 "http://www.advanced-monolithic.com/pdf/ds1117.pdf" H 2900 1350 50  0001 C CNN
	1    2800 1600
	1    0    0    -1  
$EndComp
$Comp
L Device:LED D2
U 1 1 6190277E
P 1600 2100
F 0 "D2" V 1639 1982 50  0000 R CNN
F 1 "RED_LED" V 1548 1982 50  0000 R CNN
F 2 "LED_SMD:LED_0805_2012Metric" H 1600 2100 50  0001 C CNN
F 3 "https://optoelectronics.liteon.com/upload/download/DS22-2000-109/LTST-C171KRKT.pdf" H 1600 2100 50  0001 C CNN
F 4 " LTST-C171KRKT" H 1600 2100 50  0001 C CNN "Digikey"
	1    1600 2100
	0    -1   -1   0   
$EndComp
$Comp
L power:GND #PWR03
U 1 1 619034C5
P 1600 2350
F 0 "#PWR03" H 1600 2100 50  0001 C CNN
F 1 "GND" H 1605 2177 50  0000 C CNN
F 2 "" H 1600 2350 50  0001 C CNN
F 3 "" H 1600 2350 50  0001 C CNN
	1    1600 2350
	1    0    0    -1  
$EndComp
$Comp
L power:GND #PWR05
U 1 1 61903808
P 2100 2350
F 0 "#PWR05" H 2100 2100 50  0001 C CNN
F 1 "GND" H 2105 2177 50  0000 C CNN
F 2 "" H 2100 2350 50  0001 C CNN
F 3 "" H 2100 2350 50  0001 C CNN
	1    2100 2350
	1    0    0    -1  
$EndComp
$Comp
L power:GND #PWR09
U 1 1 61903A6F
P 2800 2350
F 0 "#PWR09" H 2800 2100 50  0001 C CNN
F 1 "GND" H 2805 2177 50  0000 C CNN
F 2 "" H 2800 2350 50  0001 C CNN
F 3 "" H 2800 2350 50  0001 C CNN
	1    2800 2350
	1    0    0    -1  
$EndComp
$Comp
L power:GND #PWR012
U 1 1 61903D42
P 3300 2350
F 0 "#PWR012" H 3300 2100 50  0001 C CNN
F 1 "GND" H 3305 2177 50  0000 C CNN
F 2 "" H 3300 2350 50  0001 C CNN
F 3 "" H 3300 2350 50  0001 C CNN
	1    3300 2350
	1    0    0    -1  
$EndComp
$Comp
L Device:C_Small C1
U 1 1 6190443B
P 2100 1900
F 0 "C1" H 2192 1946 50  0000 L CNN
F 1 "22uF/10V(20%)" H 2192 1855 50  0000 L CNN
F 2 "Capacitor_SMD:C_0805_2012Metric" H 2100 1900 50  0001 C CNN
F 3 "~" H 2100 1900 50  0001 C CNN
	1    2100 1900
	1    0    0    -1  
$EndComp
$Comp
L Device:C_Small C3
U 1 1 61904926
P 3300 1900
F 0 "C3" H 3392 1946 50  0000 L CNN
F 1 "22uF/10V(20%)" H 3392 1855 50  0000 L CNN
F 2 "Capacitor_SMD:C_0805_2012Metric" H 3300 1900 50  0001 C CNN
F 3 "~" H 3300 1900 50  0001 C CNN
	1    3300 1900
	1    0    0    -1  
$EndComp
$Comp
L Device:R_Small R4
U 1 1 619022E3
P 1600 1750
F 0 "R4" H 1659 1796 50  0000 L CNN
F 1 "2K(5%)" H 1659 1705 50  0000 L CNN
F 2 "Resistor_SMD:R_0805_2012Metric" H 1600 1750 50  0001 C CNN
F 3 "~" H 1600 1750 50  0001 C CNN
	1    1600 1750
	1    0    0    -1  
$EndComp
Wire Wire Line
	1600 1850 1600 1950
Wire Wire Line
	1600 2250 1600 2350
Wire Wire Line
	2100 2350 2100 2000
Wire Wire Line
	2100 1800 2100 1600
Wire Wire Line
	2800 1900 2800 2350
Wire Wire Line
	3300 2350 3300 2000
Wire Wire Line
	3300 1800 3300 1600
Wire Wire Line
	3300 1600 3100 1600
Text GLabel 3400 1600 2    50   Input ~ 0
VDD3.3
Connection ~ 3300 1600
Text Notes 650  700  0    50   ~ 0
Power Supply
$Comp
L Interface_USB:CP2102N-A01-GQFN28 U2
U 1 1 619389A9
P 3200 6050
F 0 "U2" H 3700 7450 50  0000 C CNN
F 1 "CP2102N-A01-GQFN28" H 3700 7350 50  0000 C CNN
F 2 "Package_DFN_QFN:QFN-28-1EP_5x5mm_P0.5mm_EP3.35x3.35mm" H 3650 4850 50  0001 L CNN
F 3 "https://www.silabs.com/documents/public/data-sheets/cp2102n-datasheet.pdf" H 3250 5300 50  0001 C CNN
	1    3200 6050
	1    0    0    -1  
$EndComp
NoConn ~ 3700 6150
NoConn ~ 3700 6350
NoConn ~ 3700 6250
NoConn ~ 3700 6850
NoConn ~ 3700 6750
NoConn ~ 3700 6650
NoConn ~ 3700 6550
NoConn ~ 3700 7150
NoConn ~ 3700 7050
NoConn ~ 3700 6950
NoConn ~ 3700 5950
Text GLabel 2650 5450 0    50   Input ~ 0
USB_DP
Text GLabel 2650 5550 0    50   Input ~ 0
USB_DN
Text GLabel 1800 5350 0    50   Input ~ 0
VBUS
$Comp
L Device:R_Small R5
U 1 1 6194395E
P 1950 5350
F 0 "R5" V 1850 5350 50  0000 C CNN
F 1 "22.1K(5%)" V 2050 5350 50  0000 C CNN
F 2 "Resistor_SMD:R_0805_2012Metric" H 1950 5350 50  0001 C CNN
F 3 "~" H 1950 5350 50  0001 C CNN
	1    1950 5350
	0    1    1    0   
$EndComp
$Comp
L power:GND #PWR07
U 1 1 619463D9
P 2150 5800
F 0 "#PWR07" H 2150 5550 50  0001 C CNN
F 1 "GND" H 2155 5627 50  0000 C CNN
F 2 "" H 2150 5800 50  0001 C CNN
F 3 "" H 2150 5800 50  0001 C CNN
	1    2150 5800
	1    0    0    -1  
$EndComp
Wire Wire Line
	3200 4750 3200 4650
Wire Wire Line
	3200 4650 3100 4650
$Comp
L Device:C_Small C2
U 1 1 61948ED6
P 3250 4200
F 0 "C2" H 3342 4246 50  0000 L CNN
F 1 "4.7uF/6.3V(10%)" H 3342 4155 50  0000 L CNN
F 2 "Capacitor_SMD:C_0805_2012Metric" H 3250 4200 50  0001 C CNN
F 3 "~" H 3250 4200 50  0001 C CNN
	1    3250 4200
	1    0    0    -1  
$EndComp
Text GLabel 3000 4000 0    50   Input ~ 0
VDD3.3
$Comp
L power:GND #PWR011
U 1 1 6194AEE4
P 3250 4400
F 0 "#PWR011" H 3250 4150 50  0001 C CNN
F 1 "GND" H 3255 4227 50  0000 C CNN
F 2 "" H 3250 4400 50  0001 C CNN
F 3 "" H 3250 4400 50  0001 C CNN
	1    3250 4400
	1    0    0    -1  
$EndComp
$Comp
L Device:C_Small C4
U 1 1 61950CFD
P 4050 4200
F 0 "C4" H 4050 4300 50  0000 L CNN
F 1 "0.1uF/50V(10%)" H 3800 4000 50  0000 L CNN
F 2 "Capacitor_SMD:C_0805_2012Metric" H 4050 4200 50  0001 C CNN
F 3 "~" H 4050 4200 50  0001 C CNN
	1    4050 4200
	1    0    0    -1  
$EndComp
Connection ~ 3100 4650
Wire Wire Line
	3100 4650 3100 4000
Wire Wire Line
	3100 4650 3100 4750
Wire Wire Line
	3250 4400 3250 4350
Wire Wire Line
	3250 4300 3250 4350
Connection ~ 3250 4350
Wire Wire Line
	3250 4100 3250 4000
Wire Wire Line
	3250 4000 3100 4000
Connection ~ 3250 4000
Wire Wire Line
	3100 4000 3000 4000
Connection ~ 3100 4000
$Comp
L power:GND #PWR010
U 1 1 6196A411
P 3200 7450
F 0 "#PWR010" H 3200 7200 50  0001 C CNN
F 1 "GND" H 3205 7277 50  0000 C CNN
F 2 "" H 3200 7450 50  0001 C CNN
F 3 "" H 3200 7450 50  0001 C CNN
	1    3200 7450
	1    0    0    -1  
$EndComp
Wire Wire Line
	3200 7450 3200 7350
Text GLabel 3950 5550 2    50   Input ~ 0
DCD
Text GLabel 3950 5650 2    50   Input ~ 0
RI
$Comp
L Device:R_Small R7
U 1 1 619715FE
P 2450 5150
F 0 "R7" V 2350 5150 50  0000 C CNN
F 1 "2K(5%)" V 2550 5150 50  0000 C CNN
F 2 "Resistor_SMD:R_0805_2012Metric" H 2450 5150 50  0001 C CNN
F 3 "~" H 2450 5150 50  0001 C CNN
	1    2450 5150
	0    1    1    0   
$EndComp
Wire Wire Line
	2200 5150 2350 5150
Wire Wire Line
	2550 5150 2700 5150
$Comp
L Device:R_Small R10
U 1 1 61975F25
P 4050 5850
F 0 "R10" V 3950 5850 50  0000 C CNN
F 1 "10K(5%)(NC)" V 4150 5850 50  0000 C CNN
F 2 "Resistor_SMD:R_0805_2012Metric" H 4050 5850 50  0001 C CNN
F 3 "~" H 4050 5850 50  0001 C CNN
	1    4050 5850
	0    1    1    0   
$EndComp
Wire Wire Line
	3700 5850 3950 5850
$Comp
L power:GND #PWR014
U 1 1 619776D4
P 4450 5900
F 0 "#PWR014" H 4450 5650 50  0001 C CNN
F 1 "GND" H 4455 5727 50  0000 C CNN
F 2 "" H 4450 5900 50  0001 C CNN
F 3 "" H 4450 5900 50  0001 C CNN
	1    4450 5900
	1    0    0    -1  
$EndComp
Wire Wire Line
	4450 5900 4450 5850
Wire Wire Line
	4450 5850 4150 5850
Text Notes 3700 5850 0    50   ~ 0
ACTIVE
Text GLabel 3950 4950 2    50   Input ~ 0
CTS
Text GLabel 3950 5050 2    50   Input ~ 0
RTS
Text GLabel 3950 5150 2    50   Input ~ 0
RXD
Text GLabel 3950 5250 2    50   Input ~ 0
TXD
Text GLabel 3950 5350 2    50   Input ~ 0
DSR
Text GLabel 3950 5450 2    50   Input ~ 0
DTR
Wire Wire Line
	3950 4950 3700 4950
Wire Wire Line
	3700 5050 3950 5050
Wire Wire Line
	3950 5150 3700 5150
Wire Wire Line
	3700 5250 3950 5250
Wire Wire Line
	3950 5350 3700 5350
Wire Wire Line
	3700 5450 3950 5450
Text GLabel 3350 3150 0    50   Input ~ 0
TXD0
Text GLabel 3350 3250 0    50   Input ~ 0
RXD0
Text GLabel 4050 3150 2    50   Input ~ 0
TXD
Text GLabel 4050 3250 2    50   Input ~ 0
RXD
$Comp
L Device:R_Small R8
U 1 1 6198AA59
P 3700 3150
F 0 "R8" V 3896 3150 50  0000 C CNN
F 1 "0R(5%)" V 3805 3150 50  0000 C CNN
F 2 "Resistor_SMD:R_0805_2012Metric" H 3700 3150 50  0001 C CNN
F 3 "~" H 3700 3150 50  0001 C CNN
	1    3700 3150
	0    -1   -1   0   
$EndComp
$Comp
L Device:R_Small R9
U 1 1 6198B2C9
P 3700 3250
F 0 "R9" V 3600 3250 50  0000 C CNN
F 1 "0R(5%)" V 3500 3250 50  0000 C CNN
F 2 "Resistor_SMD:R_0805_2012Metric" H 3700 3250 50  0001 C CNN
F 3 "~" H 3700 3250 50  0001 C CNN
	1    3700 3250
	0    -1   -1   0   
$EndComp
Wire Wire Line
	3350 3150 3600 3150
Wire Wire Line
	3800 3150 4050 3150
Wire Wire Line
	4050 3250 3800 3250
Wire Wire Line
	3600 3250 3350 3250
Text GLabel 900  6600 0    50   Input ~ 0
DTR
Text GLabel 900  7250 0    50   Input ~ 0
RTS
$Comp
L Device:R_Small R2
U 1 1 6199C4B8
P 1450 6600
F 0 "R2" V 1646 6600 50  0000 C CNN
F 1 "10K(5%)" V 1555 6600 50  0000 C CNN
F 2 "Resistor_SMD:R_0805_2012Metric" H 1450 6600 50  0001 C CNN
F 3 "~" H 1450 6600 50  0001 C CNN
	1    1450 6600
	0    -1   -1   0   
$EndComp
$Comp
L Device:R_Small R3
U 1 1 6199C980
P 1450 7250
F 0 "R3" V 1646 7250 50  0000 C CNN
F 1 "10K(5%)" V 1555 7250 50  0000 C CNN
F 2 "Resistor_SMD:R_0805_2012Metric" H 1450 7250 50  0001 C CNN
F 3 "~" H 1450 7250 50  0001 C CNN
	1    1450 7250
	0    -1   -1   0   
$EndComp
Text GLabel 2400 6350 2    50   Input ~ 0
EN
Text GLabel 2400 7500 2    50   Input ~ 0
IO0
$Comp
L Transistor_BJT:BC818 Q2
U 1 1 619A0D1E
P 2100 6600
F 0 "Q2" H 2290 6646 50  0000 L CNN
F 1 "SS8050-G" H 2290 6555 50  0000 L CNN
F 2 "Package_TO_SOT_SMD:SOT-23" H 2300 6525 50  0001 L CIN
F 3 "https://datasheet.lcsc.com/lcsc/1912111437_Galaxy-SS8050G-Y1_C380930.pdf" H 2100 6600 50  0001 L CNN
	1    2100 6600
	1    0    0    -1  
$EndComp
$Comp
L Transistor_BJT:BC818 Q3
U 1 1 619A20AF
P 2100 7250
F 0 "Q3" H 2290 7204 50  0000 L CNN
F 1 "SS8050-G" H 2290 7295 50  0000 L CNN
F 2 "Package_TO_SOT_SMD:SOT-23" H 2300 7175 50  0001 L CIN
F 3 "https://datasheet.lcsc.com/lcsc/1912111437_Galaxy-SS8050G-Y1_C380930.pdf" H 2100 7250 50  0001 L CNN
	1    2100 7250
	1    0    0    1   
$EndComp
Wire Wire Line
	1000 6600 900  6600
Wire Wire Line
	1000 6600 1350 6600
Connection ~ 1000 6600
Wire Wire Line
	1550 6600 1900 6600
Wire Wire Line
	2400 6350 2200 6350
Wire Wire Line
	2200 6350 2200 6400
Wire Wire Line
	2200 7450 2200 7500
Wire Wire Line
	2200 7500 2400 7500
Wire Wire Line
	1900 7250 1550 7250
Wire Wire Line
	1350 7250 1100 7250
Wire Wire Line
	2200 6800 2200 6850
Wire Wire Line
	2200 6850 1100 6850
Connection ~ 1100 7250
Wire Wire Line
	1100 7250 900  7250
Wire Wire Line
	1100 6850 1100 7250
Wire Wire Line
	2200 7050 2200 7000
Wire Wire Line
	2200 7000 1000 7000
Wire Wire Line
	1000 6600 1000 7000
Text Notes 650  2900 0    50   ~ 0
Micro USB 5V\n&\nUSB-UART
$Comp
L power:GND #PWR015
U 1 1 61A3336E
P 4800 1800
F 0 "#PWR015" H 4800 1550 50  0001 C CNN
F 1 "GND" H 4805 1627 50  0000 C CNN
F 2 "" H 4800 1800 50  0001 C CNN
F 3 "" H 4800 1800 50  0001 C CNN
	1    4800 1800
	1    0    0    -1  
$EndComp
$Comp
L Device:C_Small C5
U 1 1 61A33D33
P 5150 1600
F 0 "C5" V 4921 1600 50  0000 C CNN
F 1 "0.1uF/50V(10%)" V 5012 1600 50  0000 C CNN
F 2 "Capacitor_SMD:C_0805_2012Metric" H 5150 1600 50  0001 C CNN
F 3 "~" H 5150 1600 50  0001 C CNN
	1    5150 1600
	0    1    1    0   
$EndComp
$Comp
L Switch:SW_Push SW1
U 1 1 61A36105
P 5150 1200
F 0 "SW1" H 5150 1485 50  0000 C CNN
F 1 "KXT 331 LHS" H 5150 1394 50  0000 C CNN
F 2 "Button_Switch_SMD:SW_SPST_CK_KXT3" H 5150 1400 50  0001 C CNN
F 3 "https://www.ckswitches.com/media/1465/kxt3.pdf" H 5150 1400 50  0001 C CNN
F 4 "CKN10779TR-ND" H 5150 1200 50  0001 C CNN "Digikey"
	1    5150 1200
	1    0    0    -1  
$EndComp
Text GLabel 5700 1200 2    50   Input ~ 0
IO0
Wire Wire Line
	4950 1200 4800 1200
Wire Wire Line
	4800 1200 4800 1600
Wire Wire Line
	5050 1600 4800 1600
Connection ~ 4800 1600
Wire Wire Line
	4800 1600 4800 1800
Wire Wire Line
	5250 1600 5500 1600
Wire Wire Line
	5500 1600 5500 1200
Wire Wire Line
	5350 1200 5500 1200
Connection ~ 5500 1200
Wire Wire Line
	5500 1200 5700 1200
$Comp
L power:GND #PWR021
U 1 1 61A52830
P 6050 1800
F 0 "#PWR021" H 6050 1550 50  0001 C CNN
F 1 "GND" H 6055 1627 50  0000 C CNN
F 2 "" H 6050 1800 50  0001 C CNN
F 3 "" H 6050 1800 50  0001 C CNN
	1    6050 1800
	1    0    0    -1  
$EndComp
$Comp
L Device:C_Small C10
U 1 1 61A52836
P 6400 1600
F 0 "C10" V 6171 1600 50  0000 C CNN
F 1 "0.1uF/50V(10%)" V 6262 1600 50  0000 C CNN
F 2 "Capacitor_SMD:C_0805_2012Metric" H 6400 1600 50  0001 C CNN
F 3 "~" H 6400 1600 50  0001 C CNN
	1    6400 1600
	0    1    1    0   
$EndComp
$Comp
L Switch:SW_Push SW2
U 1 1 61A5283C
P 6400 1200
F 0 "SW2" H 6400 1485 50  0000 C CNN
F 1 "KXT 331 LHS" H 6400 1394 50  0000 C CNN
F 2 "Button_Switch_SMD:SW_SPST_CK_KXT3" H 6400 1400 50  0001 C CNN
F 3 "https://www.ckswitches.com/media/1465/kxt3.pdf" H 6400 1400 50  0001 C CNN
F 4 "CKN10779TR-ND" H 6400 1200 50  0001 C CNN "Digikey"
	1    6400 1200
	1    0    0    -1  
$EndComp
Text GLabel 6950 1200 2    50   Input ~ 0
EN
Wire Wire Line
	6200 1200 6050 1200
Wire Wire Line
	6050 1200 6050 1600
Wire Wire Line
	6300 1600 6050 1600
Wire Wire Line
	6050 1600 6050 1800
Wire Wire Line
	6500 1600 6750 1600
Wire Wire Line
	6750 1600 6750 1200
Wire Wire Line
	6600 1200 6750 1200
Connection ~ 6750 1200
Wire Wire Line
	6750 1200 6950 1200
Text Notes 4650 700  0    50   ~ 0
SWITCH BUTTON
Connection ~ 6050 1600
Text Notes 7350 700  0    50   ~ 0
ESP32 MODULE
$Comp
L Connector:Screw_Terminal_01x02 J3
U 1 1 61BDE4FE
P 5100 4950
F 0 "J3" H 5100 4600 50  0000 C CNN
F 1 "Wuerth 691137710002" H 5100 4700 50  0000 C CNN
F 2 "TerminalBlock:TerminalBlock_Wuerth_691311400102_P7.62mm" H 5100 4950 50  0001 C CNN
F 3 "https://www.we-online.de/katalog/datasheet/691137710002.pdf" H 5100 4950 50  0001 C CNN
	1    5100 4950
	-1   0    0    1   
$EndComp
$Comp
L power:GND #PWR017
U 1 1 61BE2027
P 5850 5350
F 0 "#PWR017" H 5850 5100 50  0001 C CNN
F 1 "GND" H 5855 5177 50  0000 C CNN
F 2 "" H 5850 5350 50  0001 C CNN
F 3 "" H 5850 5350 50  0001 C CNN
	1    5850 5350
	1    0    0    -1  
$EndComp
$Comp
L Device:C_Small C8
U 1 1 61C9C8E9
P 6000 4200
F 0 "C8" H 6092 4246 50  0000 L CNN
F 1 "0.1uF/50V(10%)" H 6092 4155 50  0000 L CNN
F 2 "Capacitor_SMD:C_0805_2012Metric" H 6000 4200 50  0001 C CNN
F 3 "~" H 6000 4200 50  0001 C CNN
	1    6000 4200
	1    0    0    -1  
$EndComp
$Comp
L power:GND #PWR019
U 1 1 61CA0332
P 6000 4350
F 0 "#PWR019" H 6000 4100 50  0001 C CNN
F 1 "GND" H 6005 4177 50  0000 C CNN
F 2 "" H 6000 4350 50  0001 C CNN
F 3 "" H 6000 4350 50  0001 C CNN
	1    6000 4350
	1    0    0    -1  
$EndComp
Wire Wire Line
	6000 4100 5850 4100
Wire Wire Line
	6000 4350 6000 4300
Wire Wire Line
	5850 4500 5850 4100
Wire Wire Line
	5850 5350 5850 5300
Wire Wire Line
	5450 4800 5400 4800
Wire Wire Line
	5350 4800 5350 4850
Wire Wire Line
	5350 4850 5300 4850
Wire Wire Line
	5300 4950 5350 4950
Wire Wire Line
	5350 4950 5350 5000
Wire Wire Line
	5350 5000 5400 5000
Text GLabel 6350 4800 2    50   Input ~ 0
IO23
Text GLabel 6350 4700 2    50   Input ~ 0
IO5
Wire Wire Line
	6350 4700 6250 4700
Wire Wire Line
	6250 4800 6350 4800
Text GLabel 6350 5000 2    50   Input ~ 0
IO17
Wire Wire Line
	6350 5000 6250 5000
Connection ~ 5850 4100
Wire Wire Line
	5850 4100 5550 4100
Text GLabel 5550 4100 0    50   Input ~ 0
VDD3.3
$Comp
L Sensor_Temperature:MAX31855KASA U5
U 1 1 61D0B430
P 5850 6700
F 0 "U5" H 5500 7200 50  0000 C CNN
F 1 "MAX31855KASA" H 5500 7100 50  0000 C CNN
F 2 "Package_SO:SOIC-8_3.9x4.9mm_P1.27mm" H 6850 6350 50  0001 C CIN
F 3 "http://datasheets.maximintegrated.com/en/ds/MAX31855.pdf" H 5850 6700 50  0001 C CNN
	1    5850 6700
	1    0    0    -1  
$EndComp
$Comp
L Connector:Screw_Terminal_01x02 J4
U 1 1 61D0B436
P 5100 6750
F 0 "J4" H 5100 6400 50  0000 C CNN
F 1 "Wuerth 691137710002" H 5100 6500 50  0000 C CNN
F 2 "TerminalBlock:TerminalBlock_Wuerth_691311400102_P7.62mm" H 5100 6750 50  0001 C CNN
F 3 "https://www.we-online.de/katalog/datasheet/691137710002.pdf" H 5100 6750 50  0001 C CNN
	1    5100 6750
	-1   0    0    1   
$EndComp
$Comp
L power:GND #PWR018
U 1 1 61D0B43C
P 5850 7150
F 0 "#PWR018" H 5850 6900 50  0001 C CNN
F 1 "GND" H 5855 6977 50  0000 C CNN
F 2 "" H 5850 7150 50  0001 C CNN
F 3 "" H 5850 7150 50  0001 C CNN
	1    5850 7150
	1    0    0    -1  
$EndComp
$Comp
L Device:C_Small C9
U 1 1 61D0B442
P 6000 6000
F 0 "C9" H 6092 6046 50  0000 L CNN
F 1 "0.1uF/50V(10%)" H 6092 5955 50  0000 L CNN
F 2 "Capacitor_SMD:C_0805_2012Metric" H 6000 6000 50  0001 C CNN
F 3 "~" H 6000 6000 50  0001 C CNN
	1    6000 6000
	1    0    0    -1  
$EndComp
$Comp
L power:GND #PWR020
U 1 1 61D0B448
P 6000 6150
F 0 "#PWR020" H 6000 5900 50  0001 C CNN
F 1 "GND" H 6005 5977 50  0000 C CNN
F 2 "" H 6000 6150 50  0001 C CNN
F 3 "" H 6000 6150 50  0001 C CNN
	1    6000 6150
	1    0    0    -1  
$EndComp
Wire Wire Line
	6000 5900 5850 5900
Wire Wire Line
	6000 6150 6000 6100
Wire Wire Line
	5850 6300 5850 5900
Wire Wire Line
	5850 7150 5850 7100
Wire Wire Line
	5450 6600 5400 6600
Wire Wire Line
	5350 6600 5350 6650
Wire Wire Line
	5350 6650 5300 6650
Wire Wire Line
	5300 6750 5350 6750
Wire Wire Line
	5350 6750 5350 6800
Wire Wire Line
	5350 6800 5400 6800
Text GLabel 6350 6600 2    50   Input ~ 0
IO23
Text GLabel 6350 6500 2    50   Input ~ 0
IO5
Wire Wire Line
	6350 6500 6250 6500
Wire Wire Line
	6250 6600 6350 6600
Text GLabel 6350 6800 2    50   Input ~ 0
IO2
Wire Wire Line
	6350 6800 6250 6800
Connection ~ 5850 5900
Wire Wire Line
	5850 5900 5550 5900
Text GLabel 5550 5900 0    50   Input ~ 0
VDD3.3
$Comp
L Sensor_Temperature:MAX31855KASA U6
U 1 1 61D2C551
P 7850 5700
F 0 "U6" H 7500 6200 50  0000 C CNN
F 1 "MAX31855KASA" H 7500 6100 50  0000 C CNN
F 2 "Package_SO:SOIC-8_3.9x4.9mm_P1.27mm" H 8850 5350 50  0001 C CIN
F 3 "http://datasheets.maximintegrated.com/en/ds/MAX31855.pdf" H 7850 5700 50  0001 C CNN
	1    7850 5700
	1    0    0    -1  
$EndComp
$Comp
L Connector:Screw_Terminal_01x02 J5
U 1 1 61D2C557
P 7100 5750
F 0 "J5" H 7100 5400 50  0000 C CNN
F 1 "Wuerth 691137710002" H 7100 5500 50  0000 C CNN
F 2 "TerminalBlock:TerminalBlock_Wuerth_691311400102_P7.62mm" H 7100 5750 50  0001 C CNN
F 3 "https://www.we-online.de/katalog/datasheet/691137710002.pdf" H 7100 5750 50  0001 C CNN
	1    7100 5750
	-1   0    0    1   
$EndComp
$Comp
L power:GND #PWR023
U 1 1 61D2C55D
P 7850 6150
F 0 "#PWR023" H 7850 5900 50  0001 C CNN
F 1 "GND" H 7855 5977 50  0000 C CNN
F 2 "" H 7850 6150 50  0001 C CNN
F 3 "" H 7850 6150 50  0001 C CNN
	1    7850 6150
	1    0    0    -1  
$EndComp
$Comp
L Device:C_Small C13
U 1 1 61D2C563
P 8000 5000
F 0 "C13" H 8092 5046 50  0000 L CNN
F 1 "0.1uF/50V(10%)" H 8092 4955 50  0000 L CNN
F 2 "Capacitor_SMD:C_0805_2012Metric" H 8000 5000 50  0001 C CNN
F 3 "~" H 8000 5000 50  0001 C CNN
	1    8000 5000
	1    0    0    -1  
$EndComp
$Comp
L power:GND #PWR024
U 1 1 61D2C569
P 8000 5150
F 0 "#PWR024" H 8000 4900 50  0001 C CNN
F 1 "GND" H 8005 4977 50  0000 C CNN
F 2 "" H 8000 5150 50  0001 C CNN
F 3 "" H 8000 5150 50  0001 C CNN
	1    8000 5150
	1    0    0    -1  
$EndComp
Wire Wire Line
	8000 4900 7850 4900
Wire Wire Line
	8000 5150 8000 5100
Wire Wire Line
	7850 5300 7850 4900
Wire Wire Line
	7850 6150 7850 6100
Wire Wire Line
	7450 5600 7400 5600
Wire Wire Line
	7350 5600 7350 5650
Wire Wire Line
	7350 5650 7300 5650
Wire Wire Line
	7300 5750 7350 5750
Wire Wire Line
	7350 5750 7350 5800
Wire Wire Line
	7350 5800 7400 5800
Text GLabel 8350 5600 2    50   Input ~ 0
IO23
Text GLabel 8350 5500 2    50   Input ~ 0
IO5
Wire Wire Line
	8350 5500 8250 5500
Wire Wire Line
	8250 5600 8350 5600
Text GLabel 8350 5800 2    50   Input ~ 0
IO14
Wire Wire Line
	8350 5800 8250 5800
Connection ~ 7850 4900
Wire Wire Line
	7850 4900 7550 4900
Text GLabel 7550 4900 0    50   Input ~ 0
VDD3.3
Wire Wire Line
	4050 4350 4050 4300
Wire Wire Line
	3250 4350 4050 4350
Wire Wire Line
	3250 4000 4050 4000
Wire Wire Line
	4050 4100 4050 4000
Wire Wire Line
	3700 5550 3950 5550
Wire Wire Line
	3700 5650 3950 5650
Wire Wire Line
	2650 5450 2700 5450
Wire Wire Line
	2700 5550 2650 5550
$Comp
L Device:R_Small R6
U 1 1 61943D9D
P 2150 5600
F 0 "R6" H 2350 5600 50  0000 R CNN
F 1 "47.5K(5%)" H 2600 5700 50  0000 R CNN
F 2 "Resistor_SMD:R_0805_2012Metric" H 2150 5600 50  0001 C CNN
F 3 "~" H 2150 5600 50  0001 C CNN
	1    2150 5600
	-1   0    0    1   
$EndComp
Wire Wire Line
	2150 5800 2150 5700
Wire Wire Line
	2150 5500 2150 5350
Wire Wire Line
	2150 5350 2050 5350
Connection ~ 2150 5350
Wire Wire Line
	2150 5350 2700 5350
Wire Wire Line
	1850 5350 1800 5350
Text GLabel 2200 5150 0    50   Input ~ 0
VDD3.3
$Comp
L power:GND #PWR08
U 1 1 61933284
P 2500 4300
F 0 "#PWR08" H 2500 4050 50  0001 C CNN
F 1 "GND" H 2505 4127 50  0000 C CNN
F 2 "" H 2500 4300 50  0001 C CNN
F 3 "" H 2500 4300 50  0001 C CNN
	1    2500 4300
	1    0    0    -1  
$EndComp
$Comp
L power:GND #PWR06
U 1 1 61932ECE
P 2150 4300
F 0 "#PWR06" H 2150 4050 50  0001 C CNN
F 1 "GND" H 2155 4127 50  0000 C CNN
F 2 "" H 2150 4300 50  0001 C CNN
F 3 "" H 2150 4300 50  0001 C CNN
	1    2150 4300
	1    0    0    -1  
$EndComp
$Comp
L power:GND #PWR04
U 1 1 61932B46
P 1800 4300
F 0 "#PWR04" H 1800 4050 50  0001 C CNN
F 1 "GND" H 1805 4127 50  0000 C CNN
F 2 "" H 1800 4300 50  0001 C CNN
F 3 "" H 1800 4300 50  0001 C CNN
	1    1800 4300
	1    0    0    -1  
$EndComp
$Comp
L Device:D_Schottky D1
U 1 1 61922FB6
P 1000 1600
F 0 "D1" H 1000 1383 50  0000 C CNN
F 1 "BAT760-7" H 1000 1474 50  0000 C CNN
F 2 "Diode_SMD:D_SOD-323" H 1000 1600 50  0001 C CNN
F 3 "~" H 1000 1600 50  0001 C CNN
	1    1000 1600
	-1   0    0    1   
$EndComp
Text Notes 4650 3900 0    50   ~ 0
THERMOCOUPLES
Text GLabel 800  1050 2    50   Input ~ 0
VBUS
$Comp
L Transistor_FET:PMN48XP Q1
U 1 1 6197B9A3
P 1250 1300
F 0 "Q1" H 1454 1346 50  0000 L CNN
F 1 "PMN48XP" H 1454 1255 50  0000 L CNN
F 2 "Package_SO:TSOP-6_1.65x3.05mm_P0.95mm" H 1450 1200 50  0001 L CNN
F 3 "https://assets.nexperia.com/documents/data-sheet/PMN48XP.pdf" H 1250 1300 50  0001 C CNN
F 4 "Not sure if PMN48XP is replacement for DMG3415U or not. NEEDS CHECKING" H 1250 1300 50  0001 C CNN "Note"
	1    1250 1300
	1    0    0    -1  
$EndComp
$Comp
L Device:R_Small R1
U 1 1 6198A09D
P 750 1850
F 0 "R1" H 809 1896 50  0000 L CNN
F 1 "100K(5%)" H 809 1805 50  0000 L CNN
F 2 "Resistor_SMD:R_0805_2012Metric" H 750 1850 50  0001 C CNN
F 3 "~" H 750 1850 50  0001 C CNN
	1    750  1850
	1    0    0    -1  
$EndComp
$Comp
L power:GND #PWR01
U 1 1 6198A622
P 750 2050
F 0 "#PWR01" H 750 1800 50  0001 C CNN
F 1 "GND" H 755 1877 50  0000 C CNN
F 2 "" H 750 2050 50  0001 C CNN
F 3 "" H 750 2050 50  0001 C CNN
	1    750  2050
	1    0    0    -1  
$EndComp
Wire Wire Line
	750  2050 750  1950
Wire Wire Line
	750  1750 750  1600
Wire Wire Line
	850  1600 750  1600
Connection ~ 750  1600
Wire Wire Line
	750  1050 750  1300
Wire Wire Line
	1050 1300 750  1300
Connection ~ 750  1300
Wire Wire Line
	750  1300 750  1600
Text GLabel 1400 1050 2    50   Input ~ 0
VBAT
Wire Wire Line
	1350 1100 1350 1050
Wire Wire Line
	1350 1500 1350 1600
Wire Wire Line
	1350 1600 1150 1600
Connection ~ 1350 1600
Wire Wire Line
	3300 1600 3400 1600
Connection ~ 2100 1600
Wire Wire Line
	2100 1600 2500 1600
Wire Wire Line
	1350 1600 1600 1600
Wire Wire Line
	1600 1650 1600 1600
Connection ~ 1600 1600
Wire Wire Line
	1600 1600 2100 1600
$Comp
L Connector_Generic:Conn_01x02 J2
U 1 1 61A29FAB
P 4000 1050
F 0 "J2" H 4080 1042 50  0000 L CNN
F 1 "JST-PH" H 4080 951 50  0000 L CNN
F 2 "Connector_JST:JST_GH_BM02B-GHS-TBT_1x02-1MP_P1.25mm_Vertical" H 4000 1050 50  0001 C CNN
F 3 "" H 4000 1050 50  0001 C CNN
F 4 "https://www.sparkfun.com/products/8613" H 4000 1050 50  0001 C CNN "Source"
F 5 "https://www.digikey.com/en/products/detail/jst-sales-america-inc/BM02B-SRSS-TB-LF-SN/926694 may be a valid source, not sure if it'll fit our batteries or not. (Same model as footprint which says 1.25mm, but Digikey says 1.00 mm)" H 4000 1050 50  0001 C CNN "Note"
	1    4000 1050
	1    0    0    -1  
$EndComp
Text GLabel 3800 900  2    50   Input ~ 0
VBAT
$Comp
L power:GND #PWR013
U 1 1 61A2A7CD
P 3750 1200
F 0 "#PWR013" H 3750 950 50  0001 C CNN
F 1 "GND" H 3755 1027 50  0000 C CNN
F 2 "" H 3750 1200 50  0001 C CNN
F 3 "" H 3750 1200 50  0001 C CNN
	1    3750 1200
	1    0    0    -1  
$EndComp
Wire Wire Line
	3800 1050 3750 1050
Wire Wire Line
	3750 1150 3800 1150
Wire Notes Line
	600  600  600  7700
Wire Notes Line
	600  600  11100 600 
Wire Wire Line
	1800 3350 1950 3350
Connection ~ 1800 3350
$Comp
L Connector:USB_B_Micro J1
U 1 1 6191E857
P 950 3550
F 0 "J1" H 1007 4017 50  0000 C CNN
F 1 "USB3076" H 1007 3926 50  0000 C CNN
F 2 "Connector_USB:USB_Micro-B_GCT_USB3076-30-A" H 1100 3500 50  0001 C CNN
F 3 "https://gct.co/files/specs/usb3076-spec.pdf" H 1100 3500 50  0001 C CNN
F 4 "2073-USB3076-30-ATR-ND" H 950 3550 50  0001 C CNN "Digikey"
	1    950  3550
	1    0    0    -1  
$EndComp
NoConn ~ 1250 3750
$Comp
L power:GND #PWR02
U 1 1 6191F87B
P 950 4100
F 0 "#PWR02" H 950 3850 50  0001 C CNN
F 1 "GND" H 955 3927 50  0000 C CNN
F 2 "" H 950 4100 50  0001 C CNN
F 3 "" H 950 4100 50  0001 C CNN
	1    950  4100
	1    0    0    -1  
$EndComp
Wire Wire Line
	850  4000 850  3950
Wire Wire Line
	850  4000 950  4000
Wire Wire Line
	950  3950 950  4000
Wire Wire Line
	950  4000 950  4100
Connection ~ 950  4000
Text GLabel 1950 3350 2    50   Input ~ 0
VBUS
Wire Wire Line
	1250 3350 1800 3350
Text GLabel 2650 3650 2    50   Input ~ 0
USB_DN
Text GLabel 2650 3550 2    50   Input ~ 0
USB_DP
$Comp
L Diode:SD05_SOD323 D3
U 1 1 6192CA7D
P 1800 3900
F 0 "D3" H 1750 3700 50  0000 L CNN
F 1 "ESD5D5.0C" H 1600 3800 50  0000 L CNN
F 2 "Diode_SMD:D_SOD-523" H 1800 3700 50  0001 C CNN
F 3 "https://ait-ic.com/wp-content/uploads/2021/03/ESD5D5.0C.pdf" H 1800 3900 50  0001 C CNN
	1    1800 3900
	0    1    1    0   
$EndComp
$Comp
L Diode:SD05_SOD323 D4
U 1 1 61931F7B
P 2150 3900
F 0 "D4" H 2100 3700 50  0000 L CNN
F 1 "ESD5D5.0C" H 1950 3800 50  0000 L CNN
F 2 "Diode_SMD:D_SOD-523" H 2150 3700 50  0001 C CNN
F 3 "https://ait-ic.com/wp-content/uploads/2021/03/ESD5D5.0C.pdf" H 2150 3900 50  0001 C CNN
	1    2150 3900
	0    1    1    0   
$EndComp
$Comp
L Diode:SD05_SOD323 D5
U 1 1 61932535
P 2500 3900
F 0 "D5" H 2450 3700 50  0000 L CNN
F 1 "ESD5D5.0C" H 2300 3800 50  0000 L CNN
F 2 "Diode_SMD:D_SOD-523" H 2500 3700 50  0001 C CNN
F 3 "https://ait-ic.com/wp-content/uploads/2021/03/ESD5D5.0C.pdf" H 2500 3900 50  0001 C CNN
	1    2500 3900
	0    1    1    0   
$EndComp
Wire Wire Line
	1800 3750 1800 3350
Wire Wire Line
	1250 3550 2150 3550
Wire Wire Line
	2150 3750 2150 3550
Wire Wire Line
	2500 3750 2500 3650
Wire Wire Line
	2500 3650 1250 3650
Wire Wire Line
	2500 4050 2500 4300
Wire Wire Line
	2150 4300 2150 4050
Wire Wire Line
	1800 4050 1800 4300
Wire Wire Line
	2650 3550 2150 3550
Connection ~ 2150 3550
Wire Wire Line
	2650 3650 2500 3650
Connection ~ 2500 3650
Wire Notes Line
	4600 600  4600 7700
Wire Notes Line
	600  2650 4600 2650
$Comp
L Battery_Management:MCP73831-2-OT U3
U 1 1 61B6511E
P 5800 2700
F 0 "U3" H 6150 3050 50  0000 C CNN
F 1 "MCP73831-2-OT" H 6150 2950 50  0000 C CNN
F 2 "Package_TO_SOT_SMD:SOT-23-5" H 5850 2450 50  0001 L CIN
F 3 "http://ww1.microchip.com/downloads/en/DeviceDoc/20001984g.pdf" H 5650 2650 50  0001 C CNN
	1    5800 2700
	1    0    0    -1  
$EndComp
Wire Wire Line
	5700 2250 5800 2250
Wire Wire Line
	5800 2250 5800 2400
Text GLabel 5700 2250 0    50   Input ~ 0
VBUS
$Comp
L Device:R_Small R12
U 1 1 61BFC45C
P 6250 3250
F 0 "R12" H 6350 3250 50  0000 C CNN
F 1 "2K(5%)" H 6050 3250 50  0000 C CNN
F 2 "Resistor_SMD:R_0805_2012Metric" H 6250 3250 50  0001 C CNN
F 3 "~" H 6250 3250 50  0001 C CNN
	1    6250 3250
	-1   0    0    1   
$EndComp
Text GLabel 5750 3550 0    50   Input ~ 0
VBUS
$Comp
L Device:R_Small R11
U 1 1 61C93705
P 5200 2950
F 0 "R11" H 5300 2950 50  0000 C CNN
F 1 "4.7K(5%)" H 5000 2950 50  0000 C CNN
F 2 "Resistor_SMD:R_0805_2012Metric" H 5200 2950 50  0001 C CNN
F 3 "~" H 5200 2950 50  0001 C CNN
	1    5200 2950
	-1   0    0    1   
$EndComp
Wire Wire Line
	5400 2800 5200 2800
Wire Wire Line
	5200 2800 5200 2850
Wire Wire Line
	5800 3000 5800 3150
Wire Wire Line
	5800 3150 5300 3150
Wire Wire Line
	5200 3150 5200 3050
$Comp
L power:GND #PWR016
U 1 1 61CAF84D
P 5300 3150
F 0 "#PWR016" H 5300 2900 50  0001 C CNN
F 1 "GND" H 5305 2977 50  0000 C CNN
F 2 "" H 5300 3150 50  0001 C CNN
F 3 "" H 5300 3150 50  0001 C CNN
	1    5300 3150
	1    0    0    -1  
$EndComp
Connection ~ 5300 3150
Wire Wire Line
	5300 3150 5200 3150
$Comp
L Device:LED D6
U 1 1 61B97E38
P 6000 3550
F 0 "D6" H 6050 3450 50  0000 R CNN
F 1 "ORANGE_LED" H 6000 3700 50  0000 C CNN
F 2 "LED_SMD:LED_0805_2012Metric" H 6000 3550 50  0001 C CNN
F 3 "" H 6000 3550 50  0001 C CNN
F 4 "732-150080AS75000TR-ND" H 6000 3550 50  0001 C CNN "Digikey"
	1    6000 3550
	-1   0    0    1   
$EndComp
Text GLabel 6650 2600 2    50   Input ~ 0
VBAT
Wire Wire Line
	750  1050 800  1050
Wire Wire Line
	1350 1050 1400 1050
Wire Wire Line
	3750 1050 3750 900 
Wire Wire Line
	3750 900  3800 900 
$Comp
L Device:C_Small C11
U 1 1 61D0732D
P 6450 2750
F 0 "C11" H 6542 2796 50  0000 L CNN
F 1 "10uF/10V(20%)" H 6542 2705 50  0000 L CNN
F 2 "Capacitor_SMD:C_0805_2012Metric" H 6450 2750 50  0001 C CNN
F 3 "~" H 6450 2750 50  0001 C CNN
	1    6450 2750
	1    0    0    -1  
$EndComp
$Comp
L power:GND #PWR022
U 1 1 61D08A00
P 6450 2950
F 0 "#PWR022" H 6450 2700 50  0001 C CNN
F 1 "GND" H 6455 2777 50  0000 C CNN
F 2 "" H 6450 2950 50  0001 C CNN
F 3 "" H 6450 2950 50  0001 C CNN
	1    6450 2950
	1    0    0    -1  
$EndComp
Wire Wire Line
	6450 2600 6200 2600
Wire Wire Line
	6450 2600 6450 2650
Wire Wire Line
	6650 2600 6450 2600
Connection ~ 6450 2600
Wire Wire Line
	6450 2850 6450 2950
Wire Wire Line
	6150 3550 6250 3550
Wire Wire Line
	6250 3550 6250 3350
Wire Wire Line
	6250 3150 6250 2800
Wire Wire Line
	6250 2800 6200 2800
Wire Wire Line
	5850 3550 5750 3550
Wire Notes Line
	7300 4650 7300 600 
Wire Notes Line
	7300 2150 4600 2150
Wire Notes Line
	7300 4650 11100 4650
Wire Notes Line
	7300 3800 4600 3800
Text Notes 4650 2250 0    50   ~ 0
LIPO CHARGING
$Comp
L Sensor_Temperature:MAX31855KASA U4
U 1 1 61B9D007
P 5850 4900
F 0 "U4" H 5500 5400 50  0000 C CNN
F 1 "MAX31855KASA" H 5500 5300 50  0000 C CNN
F 2 "Package_SO:SOIC-8_3.9x4.9mm_P1.27mm" H 6850 4550 50  0001 C CIN
F 3 "http://datasheets.maximintegrated.com/en/ds/MAX31855.pdf" H 5850 4900 50  0001 C CNN
	1    5850 4900
	1    0    0    -1  
$EndComp
$Comp
L Sensor_Temperature:MAX31855KASA U8
U 1 1 61E1C6D3
P 9900 5700
F 0 "U8" H 9550 6200 50  0000 C CNN
F 1 "MAX31855KASA" H 9550 6100 50  0000 C CNN
F 2 "Package_SO:SOIC-8_3.9x4.9mm_P1.27mm" H 10900 5350 50  0001 C CIN
F 3 "http://datasheets.maximintegrated.com/en/ds/MAX31855.pdf" H 9900 5700 50  0001 C CNN
	1    9900 5700
	1    0    0    -1  
$EndComp
$Comp
L Connector:Screw_Terminal_01x02 J6
U 1 1 61E1C6D9
P 9150 5750
F 0 "J6" H 9150 5400 50  0000 C CNN
F 1 "Wuerth 691137710002" H 9150 5500 50  0000 C CNN
F 2 "TerminalBlock:TerminalBlock_Wuerth_691311400102_P7.62mm" H 9150 5750 50  0001 C CNN
F 3 "https://www.we-online.de/katalog/datasheet/691137710002.pdf" H 9150 5750 50  0001 C CNN
	1    9150 5750
	-1   0    0    1   
$EndComp
$Comp
L power:GND #PWR027
U 1 1 61E1C6DF
P 9900 6150
F 0 "#PWR027" H 9900 5900 50  0001 C CNN
F 1 "GND" H 9905 5977 50  0000 C CNN
F 2 "" H 9900 6150 50  0001 C CNN
F 3 "" H 9900 6150 50  0001 C CNN
	1    9900 6150
	1    0    0    -1  
$EndComp
$Comp
L Device:C_Small C17
U 1 1 61E1C6E5
P 10050 5000
F 0 "C17" H 10142 5046 50  0000 L CNN
F 1 "0.1uF/50V(10%)" H 10142 4955 50  0000 L CNN
F 2 "Capacitor_SMD:C_0805_2012Metric" H 10050 5000 50  0001 C CNN
F 3 "~" H 10050 5000 50  0001 C CNN
	1    10050 5000
	1    0    0    -1  
$EndComp
$Comp
L power:GND #PWR028
U 1 1 61E1C6EB
P 10050 5150
F 0 "#PWR028" H 10050 4900 50  0001 C CNN
F 1 "GND" H 10055 4977 50  0000 C CNN
F 2 "" H 10050 5150 50  0001 C CNN
F 3 "" H 10050 5150 50  0001 C CNN
	1    10050 5150
	1    0    0    -1  
$EndComp
Wire Wire Line
	10050 4900 9900 4900
Wire Wire Line
	10050 5150 10050 5100
Wire Wire Line
	9900 5300 9900 4900
Wire Wire Line
	9900 6150 9900 6100
Wire Wire Line
	9500 5600 9450 5600
Wire Wire Line
	9400 5600 9400 5650
Wire Wire Line
	9400 5650 9350 5650
Wire Wire Line
	9350 5750 9400 5750
Wire Wire Line
	9400 5750 9400 5800
Wire Wire Line
	9400 5800 9450 5800
Text GLabel 10400 5600 2    50   Input ~ 0
IO23
Text GLabel 10400 5500 2    50   Input ~ 0
IO5
Wire Wire Line
	10400 5500 10300 5500
Wire Wire Line
	10300 5600 10400 5600
Text GLabel 10400 5800 2    50   Input ~ 0
IO21
Wire Wire Line
	10400 5800 10300 5800
Connection ~ 9900 4900
Wire Wire Line
	9900 4900 9600 4900
Text GLabel 9600 4900 0    50   Input ~ 0
VDD3.3
Wire Notes Line
	6850 6450 6850 7700
Wire Notes Line
	600  7700 6850 7700
Wire Notes Line
	6850 6450 11100 6450
Wire Wire Line
	3750 1200 3750 1150
Wire Notes Line
	11100 600  11100 6450
Connection ~ 10200 1100
Wire Wire Line
	8600 1900 8350 1900
Wire Wire Line
	8350 1800 8600 1800
Wire Wire Line
	8350 2800 8600 2800
Wire Wire Line
	8600 2900 8350 2900
Wire Wire Line
	8350 3000 8600 3000
Wire Wire Line
	8600 3100 8350 3100
Wire Wire Line
	8350 3200 8600 3200
Wire Wire Line
	8600 3300 8350 3300
Wire Wire Line
	10050 3900 9800 3900
$Comp
L RF_Module:ESP32-WROOM-32D U7
U 1 1 61A75D10
P 9200 2800
F 0 "U7" H 9600 4250 50  0000 C CNN
F 1 "ESP32-WROOM-32D" H 9600 4150 50  0000 C CNN
F 2 "RF_Module:ESP32-WROOM-32" H 9200 1300 50  0001 C CNN
F 3 "https://www.espressif.com/sites/default/files/documentation/esp32-wroom-32d_esp32-wroom-32u_datasheet_en.pdf" H 8900 2850 50  0001 C CNN
	1    9200 2800
	1    0    0    -1  
$EndComp
$Comp
L Device:C_Small C15
U 1 1 61A8CBC4
P 9350 950
F 0 "C15" H 9442 996 50  0000 L CNN
F 1 "22uF/10V(20%)" H 9442 905 50  0000 L CNN
F 2 "Capacitor_SMD:C_0805_2012Metric" H 9350 950 50  0001 C CNN
F 3 "~" H 9350 950 50  0001 C CNN
	1    9350 950 
	1    0    0    -1  
$EndComp
Text GLabel 9100 750  0    50   Input ~ 0
VDD3.3
$Comp
L power:GND #PWR029
U 1 1 61A8CBCB
P 10200 1100
F 0 "#PWR029" H 10200 850 50  0001 C CNN
F 1 "GND" H 10205 927 50  0000 C CNN
F 2 "" H 10200 1100 50  0001 C CNN
F 3 "" H 10200 1100 50  0001 C CNN
	1    10200 1100
	1    0    0    -1  
$EndComp
Wire Wire Line
	9200 1400 9200 750 
Wire Wire Line
	10200 1100 9350 1100
Wire Wire Line
	9350 1050 9350 1100
Wire Wire Line
	9350 850  9350 750 
Wire Wire Line
	9350 750  10200 750 
Wire Wire Line
	9350 750  9200 750 
Connection ~ 9350 750 
Wire Wire Line
	9200 750  9100 750 
Connection ~ 9200 750 
Text GLabel 7750 1000 0    50   Input ~ 0
VDD3.3
$Comp
L Device:C_Small C14
U 1 1 61A91542
P 8450 1100
F 0 "C14" H 8542 1146 50  0000 L CNN
F 1 "0.1uF/50V(10%)" H 8542 1055 50  0000 L CNN
F 2 "Capacitor_SMD:C_0805_2012Metric" H 8450 1100 50  0001 C CNN
F 3 "~" H 8450 1100 50  0001 C CNN
	1    8450 1100
	1    0    0    -1  
$EndComp
$Comp
L Device:R_Small R13
U 1 1 61A929F8
P 8000 1000
F 0 "R13" V 7900 1000 50  0000 C CNN
F 1 "10K(5%)" V 8100 1000 50  0000 C CNN
F 2 "Resistor_SMD:R_0805_2012Metric" H 8000 1000 50  0001 C CNN
F 3 "~" H 8000 1000 50  0001 C CNN
	1    8000 1000
	0    1    1    0   
$EndComp
$Comp
L power:GND #PWR025
U 1 1 61AAD93C
P 8450 1300
F 0 "#PWR025" H 8450 1050 50  0001 C CNN
F 1 "GND" H 8455 1127 50  0000 C CNN
F 2 "" H 8450 1300 50  0001 C CNN
F 3 "" H 8450 1300 50  0001 C CNN
	1    8450 1300
	1    0    0    -1  
$EndComp
Wire Wire Line
	7750 1000 7900 1000
Wire Wire Line
	8100 1000 8250 1000
Wire Wire Line
	8450 1200 8450 1300
Wire Wire Line
	8250 1000 8250 1600
Wire Wire Line
	8250 1600 8600 1600
Connection ~ 8250 1000
Wire Wire Line
	8250 1000 8450 1000
$Comp
L power:GND #PWR026
U 1 1 61AC1D59
P 9200 4300
F 0 "#PWR026" H 9200 4050 50  0001 C CNN
F 1 "GND" H 9205 4127 50  0000 C CNN
F 2 "" H 9200 4300 50  0001 C CNN
F 3 "" H 9200 4300 50  0001 C CNN
	1    9200 4300
	1    0    0    -1  
$EndComp
Wire Wire Line
	9200 4300 9200 4200
Text GLabel 8350 1800 0    50   Input ~ 0
SENSOR_VP
Text GLabel 8350 1900 0    50   Input ~ 0
SENSOR_VN
Text GLabel 8350 2800 0    50   Input ~ 0
SD0
Text GLabel 8350 2900 0    50   Input ~ 0
SD1
Text GLabel 8350 3000 0    50   Input ~ 0
SD2
Text GLabel 8350 3100 0    50   Input ~ 0
SD3
Text GLabel 8350 3200 0    50   Input ~ 0
CLK
Text GLabel 8350 3300 0    50   Input ~ 0
CMD
Wire Wire Line
	9800 1600 10050 1600
Wire Wire Line
	10050 1700 9800 1700
Wire Wire Line
	9800 1800 10050 1800
Wire Wire Line
	10050 1900 9800 1900
Wire Wire Line
	10050 2100 9800 2100
Wire Wire Line
	9800 2200 10050 2200
Wire Wire Line
	10050 2300 9800 2300
Wire Wire Line
	9800 2400 10050 2400
Wire Wire Line
	10050 2500 9800 2500
Wire Wire Line
	9800 2600 10050 2600
Wire Wire Line
	10050 2700 9800 2700
Wire Wire Line
	9800 2800 10050 2800
Wire Wire Line
	10050 2900 9800 2900
Wire Wire Line
	9800 3000 10050 3000
Wire Wire Line
	10050 3100 9800 3100
Wire Wire Line
	9800 3200 10050 3200
Wire Wire Line
	10050 3300 9800 3300
Wire Wire Line
	9800 3400 10050 3400
Wire Wire Line
	10050 3500 9800 3500
Wire Wire Line
	9800 3600 10050 3600
Wire Wire Line
	10050 3700 9800 3700
Wire Wire Line
	9800 3800 10050 3800
Text GLabel 10050 3900 2    50   Input ~ 0
IO35
Text GLabel 10050 3800 2    50   Input ~ 0
IO34
Text GLabel 10050 3700 2    50   Input ~ 0
IO33
Text GLabel 10050 3600 2    50   Input ~ 0
IO32
Text GLabel 10050 3500 2    50   Input ~ 0
IO27
Text GLabel 10050 3400 2    50   Input ~ 0
IO26
Text GLabel 10050 3300 2    50   Input ~ 0
IO25
Text GLabel 10050 3200 2    50   Input ~ 0
IO23
Text GLabel 10050 3100 2    50   Input ~ 0
IO22
Text GLabel 10050 3000 2    50   Input ~ 0
IO21
Text GLabel 10050 2900 2    50   Input ~ 0
IO19
Text GLabel 10050 2800 2    50   Input ~ 0
IO18
Text GLabel 10050 2700 2    50   Input ~ 0
IO17
Text GLabel 10050 2600 2    50   Input ~ 0
IO16
Text GLabel 10050 2500 2    50   Input ~ 0
IO15
Text GLabel 10050 2400 2    50   Input ~ 0
IO14
Text GLabel 10050 2300 2    50   Input ~ 0
IO13
Text GLabel 10050 2200 2    50   Input ~ 0
IO12
Text GLabel 10050 2100 2    50   Input ~ 0
IO5
Text GLabel 10700 2000 2    50   Input ~ 0
IO4
Text GLabel 10050 1800 2    50   Input ~ 0
IO2
Text GLabel 10050 1900 2    50   Input ~ 0
RXD0
Text GLabel 10050 1700 2    50   Input ~ 0
TXD0
Text GLabel 10050 1600 2    50   Input ~ 0
IO0
Wire Wire Line
	10200 750  10200 850 
Wire Wire Line
	10200 1050 10200 1100
$Comp
L Device:C_Small C18
U 1 1 61A8CBD1
P 10200 950
F 0 "C18" H 10292 996 50  0000 L CNN
F 1 "0.1uF/50V(10%)" H 10292 905 50  0000 L CNN
F 2 "Capacitor_SMD:C_0805_2012Metric" H 10200 950 50  0001 C CNN
F 3 "~" H 10200 950 50  0001 C CNN
	1    10200 950 
	1    0    0    -1  
$EndComp
$Comp
L Device:LED D7
U 1 1 61EAA177
P 10500 2450
F 0 "D7" V 10539 2332 50  0000 R CNN
F 1 "BLUE_LED" V 10448 2332 50  0000 R CNN
F 2 "LED_SMD:LED_0805_2012Metric" H 10500 2450 50  0001 C CNN
F 3 "https://www.we-online.com/katalog/datasheet/150080BS75000.pdf" H 10500 2450 50  0001 C CNN
F 4 "732-4982-2-ND" H 10500 2450 50  0001 C CNN "Digikey"
	1    10500 2450
	0    -1   -1   0   
$EndComp
$Comp
L power:GND #PWR030
U 1 1 61EAA7D8
P 10500 2650
F 0 "#PWR030" H 10500 2400 50  0001 C CNN
F 1 "GND" H 10505 2477 50  0000 C CNN
F 2 "" H 10500 2650 50  0001 C CNN
F 3 "" H 10500 2650 50  0001 C CNN
	1    10500 2650
	1    0    0    -1  
$EndComp
$Comp
L Device:R_Small R14
U 1 1 61EAAC95
P 10500 2150
F 0 "R14" H 10600 2150 50  0000 C CNN
F 1 "1K(5%)" H 10300 2150 50  0000 C CNN
F 2 "Resistor_SMD:R_0805_2012Metric" H 10500 2150 50  0001 C CNN
F 3 "~" H 10500 2150 50  0001 C CNN
	1    10500 2150
	-1   0    0    1   
$EndComp
Wire Wire Line
	9800 2000 10500 2000
Wire Wire Line
	10500 2050 10500 2000
Connection ~ 10500 2000
Wire Wire Line
	10500 2000 10700 2000
Wire Wire Line
	10500 2250 10500 2300
Wire Wire Line
	10500 2600 10500 2650
$Comp
L Device:C_Small C6
U 1 1 62040D22
P 5400 4900
F 0 "C6" H 5400 5000 50  0000 L CNN
F 1 "10nF" H 5300 4700 50  0000 L CNN
F 2 "Capacitor_SMD:C_0805_2012Metric" H 5400 4900 50  0001 C CNN
F 3 "~" H 5400 4900 50  0001 C CNN
	1    5400 4900
	1    0    0    -1  
$EndComp
Connection ~ 5400 4800
Wire Wire Line
	5400 4800 5350 4800
Connection ~ 5400 5000
Wire Wire Line
	5400 5000 5450 5000
$Comp
L Device:C_Small C12
U 1 1 6205F70F
P 7400 5700
F 0 "C12" H 7400 5800 50  0000 L CNN
F 1 "10nF" H 7300 5500 50  0000 L CNN
F 2 "Capacitor_SMD:C_0805_2012Metric" H 7400 5700 50  0001 C CNN
F 3 "~" H 7400 5700 50  0001 C CNN
	1    7400 5700
	1    0    0    -1  
$EndComp
Connection ~ 7400 5600
Wire Wire Line
	7400 5600 7350 5600
Connection ~ 7400 5800
Wire Wire Line
	7400 5800 7450 5800
$Comp
L Device:C_Small C16
U 1 1 6205FDDE
P 9450 5700
F 0 "C16" H 9450 5800 50  0000 L CNN
F 1 "10nF" H 9350 5500 50  0000 L CNN
F 2 "Capacitor_SMD:C_0805_2012Metric" H 9450 5700 50  0001 C CNN
F 3 "~" H 9450 5700 50  0001 C CNN
	1    9450 5700
	1    0    0    -1  
$EndComp
Connection ~ 9450 5600
Wire Wire Line
	9450 5600 9400 5600
Connection ~ 9450 5800
Wire Wire Line
	9450 5800 9500 5800
$Comp
L Device:C_Small C7
U 1 1 62060206
P 5400 6700
F 0 "C7" H 5400 6800 50  0000 L CNN
F 1 "10nF" H 5300 6500 50  0000 L CNN
F 2 "Capacitor_SMD:C_0805_2012Metric" H 5400 6700 50  0001 C CNN
F 3 "~" H 5400 6700 50  0001 C CNN
	1    5400 6700
	1    0    0    -1  
$EndComp
Connection ~ 5400 6600
Wire Wire Line
	5400 6600 5350 6600
Connection ~ 5400 6800
Wire Wire Line
	5400 6800 5450 6800
$EndSCHEMATC
